Fixed Point Modules/rgb2grey_shifting.vcd
$date
	Thu Feb 22 11:48:25 2024
$end
$version
	ModelSim Version 10.5b
$end
$timescale
	1ps
$end

$scope module rgb2grey_tb $end
$var reg 24 ! rgb_pixel [23:0] $end
$var wire 1 " grey_pixel [7] $end
$var wire 1 # grey_pixel [6] $end
$var wire 1 $ grey_pixel [5] $end
$var wire 1 % grey_pixel [4] $end
$var wire 1 & grey_pixel [3] $end
$var wire 1 ' grey_pixel [2] $end
$var wire 1 ( grey_pixel [1] $end
$var wire 1 ) grey_pixel [0] $end

$scope module uut $end
$var wire 1 * rgb_pixel [23] $end
$var wire 1 + rgb_pixel [22] $end
$var wire 1 , rgb_pixel [21] $end
$var wire 1 - rgb_pixel [20] $end
$var wire 1 . rgb_pixel [19] $end
$var wire 1 / rgb_pixel [18] $end
$var wire 1 0 rgb_pixel [17] $end
$var wire 1 1 rgb_pixel [16] $end
$var wire 1 2 rgb_pixel [15] $end
$var wire 1 3 rgb_pixel [14] $end
$var wire 1 4 rgb_pixel [13] $end
$var wire 1 5 rgb_pixel [12] $end
$var wire 1 6 rgb_pixel [11] $end
$var wire 1 7 rgb_pixel [10] $end
$var wire 1 8 rgb_pixel [9] $end
$var wire 1 9 rgb_pixel [8] $end
$var wire 1 : rgb_pixel [7] $end
$var wire 1 ; rgb_pixel [6] $end
$var wire 1 < rgb_pixel [5] $end
$var wire 1 = rgb_pixel [4] $end
$var wire 1 > rgb_pixel [3] $end
$var wire 1 ? rgb_pixel [2] $end
$var wire 1 @ rgb_pixel [1] $end
$var wire 1 A rgb_pixel [0] $end
$var reg 8 B grey_pixel [7:0] $end
$var reg 8 C red [7:0] $end
$var reg 8 D green [7:0] $end
$var reg 8 E blue [7:0] $end
$upscope $end
$upscope $end
$enddefinitions $end
#0
$dumpvars
b10110101010001110111000 !
b10001001 B
b1 C
b0 D
b1 E
1)
0(
0'
1&
0%
0$
0#
1"
0A
0@
0?
1>
1=
1<
0;
1:
19
18
07
06
05
14
03
12
01
10
0/
1.
1-
0,
1+
0*
$end
#100
b11101010000110000100110 !
1@
1?
0>
0=
0:
09
08
17
16
04
02
11
00
1/
0.
1,
b1110101 C
b1100 E
b100110 D
b11101 C
b11101 B
b11 C
b100000 B
b1 C
b100001 B
b110 E
b100111 B
b0 E
b10 D
b101001 B
b1 D
b101010 B
b0 D
0)
1(
1$
0"
#200
b11011011100101100110 !
1;
19
07
15
14
12
1.
0-
0,
0+
b1101 C
b10111001 E
b1100110 D
b11 C
b11 B
b0 C
b1011100 E
b1011111 B
b1011 E
b1101010 B
b10 E
b1101100 B
b1 E
b1101101 B
b110 D
b1110011 B
b11 D
b1110110 B
b1 D
b1110111 B
b0 D
1)
1'
0&
1%
1#
#300
b101110011110001110110110 !
1=
0;
1:
18
06
05
13
0/
1-
1,
1*
b10111001 C
b11100011 E
b10110110 D
b101110 C
b101110 B
b101 C
b110011 B
b10 C
b110101 B
b1110001 E
b10100110 B
b1110 E
b10110100 B
b11 E
b10110111 B
b1 E
b10111000 B
b1011 D
b11000011 B
b101 D
b11001000 B
b10 D
b11001010 B
b0 D
0)
0'
1&
0%
0$
1"
#400
b11100000100011000110 !
0=
0<
1;
09
08
16
04
03
02
01
10
1/
0-
0,
0*
b1110 C
b1000 E
b11000110 D
b11 C
b11 B
b0 C
b100 E
b111 B
b0 E
b1100 D
b10011 B
b110 D
b11001 B
b11 D
b11100 B
b0 D
0(
1'
1%
0#
0"
#500
b100101010110111001000110 !
0:
18
17
14
13
11
00
0.
1-
1*
b10010101 C
b1101110 E
b1000110 D
b100101 C
b100101 B
b100 C
b101001 B
b10 C
b101011 B
b110111 E
b1100010 B
b110 E
b1101000 B
b1 E
b1101001 B
b0 E
b100 D
b1101101 B
b10 D
b1101111 B
b1 D
b1110000 B
b0 D
0'
0&
1$
1#
#600
b110100010000111101110010 !
0?
1=
1<
19
04
03
0/
1+
b11010001 C
b1111 E
b1110010 D
b110100 C
b110100 B
b110 C
b111010 B
b11 C
b111101 B
b111 E
b1000100 B
b0 E
b111 D
b1001011 B
b11 D
b1001110 B
b1 D
b1001111 B
b0 D
1)
1(
1'
1&
0%
0$
#700
b100110111111001100101110 !
1?
1>
0=
0;
07
06
15
14
13
12
10
1.
0+
b10011011 C
b11110011 E
b101110 D
b100110 C
b100110 B
b100 C
b101010 B
b10 C
b101100 B
b1111001 E
b10100101 B
b1111 E
b10110100 B
b11 E
b10110111 B
b1 E
b10111000 B
b10 D
b10111010 B
b1 D
b10111011 B
b0 D
0'
1%
1$
0#
1"
#800
b1101110100010001100111 !
1A
0>
1;
09
08
17
05
04
02
1/
0.
1,
0*
b110111 C
b1000100 E
b1100111 D
b1101 C
b1101 B
b1 C
b1110 B
b0 C
b100010 E
b110000 B
b100 E
b110100 B
b1 E
b110101 B
b0 E
b110 D
b111011 B
b11 D
b111110 B
b1 D
b111111 B
b0 D
1'
0"
#900
b100001100101010100111010 !
0A
0?
1>
1=
0;
19
15
01
0-
0,
1*
b10000110 C
b1010101 E
b111010 D
b100001 C
b100001 B
b100 C
b100101 B
b10 C
b100111 B
b101010 E
b1010001 B
b101 E
b1010110 B
b1 E
b1010111 B
b0 E
b11 D
b1011010 B
b1 D
b1011011 B
b0 D
0'
0$
1#
#1000
b111110010001110001101010 !
0=
1;
09
16
03
11
00
0/
1.
1-
1,
1+
b11111001 C
b11100 E
b1101010 D
b111110 C
b111110 B
b111 C
b1000101 B
b11 C
b1001000 B
b1110 E
b1010110 B
b1 E
b1010111 B
b0 E
b110 D
b1011101 B
b11 D
b1100000 B
b1 D
b1100001 B
b0 D
0(
0&
0%
1$
#1100
b1001011101000110110100 !
0@
1?
0>
1=
0;
1:
19
07
06
13
12
1/
0.
0-
0+
0*
b100101 C
b11010001 E
b10110100 D
b1001 C
b1001 B
b1 C
b1010 B
b0 C
b1101000 E
b1110010 B
b1101 E
b1111111 B
b11 E
b10000010 B
b1 E
b10000011 B
b1011 D
b10001110 B
b101 D
b10010011 B
b10 D
b10010101 B
b0 D
1'
1%
0$
0#
1"
#1200
b101101111101001101111 !
1A
1@
1>
0=
1;
0:
09
18
16
14
01
10
1-
0,
b10110 C
b11111010 E
b1101111 D
b101 C
b101 B
b0 C
b1111101 E
b10000010 B
b1111 E
b10010001 B
b11 E
b10010100 B
b1 E
b10010101 B
b110 D
b10011011 B
b11 D
b10011110 B
b1 D
b10011111 B
b0 D
1(
1&
#1300
b100110110001101001010110 !
0A
0>
1=
0<
04
03
02
11
0/
1.
1*
b10011011 C
b11010 E
b1010110 D
b100110 C
b100110 B
b100 C
b101010 B
b10 C
b101100 B
b1101 E
b111001 B
b1 E
b111010 B
b0 E
b101 D
b111111 B
b10 D
b1000001 B
b1 D
b1000010 B
b0 D
0)
0'
0&
0%
1#
0"
#1400
b110010011011000110101 !
1A
0@
1<
0;
17
06
14
00
0*
b11001 C
b110110 E
b110101 D
b110 C
b110 B
b0 C
b11011 E
b100001 B
b11 E
b100100 B
b0 E
b11 D
b100111 B
b1 D
b101000 B
b0 D
0(
1&
1$
0#
#1500
b111011010111011111010100 !
0A
0<
1;
1:
19
13
1/
0-
1,
1+
1*
b11101101 C
b1110111 E
b11010100 D
b111011 C
b111011 B
b111 C
b1000010 B
b11 C
b1000101 B
b111011 E
b10000000 B
b111 E
b10000111 B
b1 E
b10001000 B
b0 E
b1101 D
b10010101 B
b110 D
b10011011 B
b11 D
b10011110 B
b0 D
1(
1'
1%
0$
1"
#1600
b100111110100000010101110 !
1@
1>
0=
1<
0;
09
08
07
05
04
10
1-
0,
0+
b10011111 C
b1000000 E
b10101110 D
b100111 C
b100111 B
b100 C
b101011 B
b10 C
b101101 B
b100000 E
b1001101 B
b100 E
b1010001 B
b1 E
b1010010 B
b0 E
b1010 D
b1011100 B
b101 D
b1100001 B
b10 D
b1100011 B
b0 D
1)
0'
0&
0%
1$
1#
0"
#1700
b111100011000000101111101 !
1A
0@
1=
1;
0:
19
03
12
00
0/
0.
1,
1+
b11110001 C
b10000001 E
b1111101 D
b111100 C
b111100 B
b111 C
b1000011 B
b11 C
b1000110 B
b1000000 E
b10000110 B
b1000 E
b10001110 B
b10 E
b10010000 B
b1 E
b10010001 B
b111 D
b10011000 B
b11 D
b10011011 B
b1 D
b10011100 B
b0 D
0)
0(
1'
1&
1%
0$
0#
1"
#1800
b110011001011011111011011 !
1@
0?
0<
1:
18
17
15
14
01
1/
1.
0-
0,
b11001100 C
b10110111 E
b11011011 D
b110011 C
b110011 B
b110 C
b111001 B
b11 C
b111100 B
b1011011 E
b10010111 B
b1011 E
b10100010 B
b10 E
b10100100 B
b1 E
b10100101 B
b1101 D
b10110010 B
b110 D
b10111000 B
b11 D
b10111011 B
b0 D
1)
1(
0'
1$
#1900
b111011110000111000000101 !
0@
1?
0>
0=
0;
0:
09
16
05
04
02
11
10
1,
b11101111 C
b1110 E
b101 D
b111011 C
b111011 B
b111 C
b1000010 B
b11 C
b1000101 B
b111 E
b1001100 B
b0 E
b0 D
0)
0(
1'
0%
0$
1#
0"
#2000
b110011011000011011100011 !
1@
0?
1<
1;
1:
06
12
00
0,
b11001101 C
b10000110 E
b11100011 D
b110011 C
b110011 B
b110 C
b111001 B
b11 C
b111100 B
b1000011 E
b1111111 B
b1000 E
b10000111 B
b10 E
b10001001 B
b1 E
b10001010 B
b1110 D
b10011000 B
b111 D
b10011111 B
b11 D
b10100010 B
b0 D
1(
0'
0&
1$
0#
1"
#2100
b1000001100100000 !
0A
0@
0;
0:
19
07
01
0/
0.
0+
0*
b0 C
b10000011 E
b100000 D
b0 B
b1000001 E
b1000001 B
b1000 E
b1001001 B
b10 E
b1001011 B
b1 E
b1001100 B
b10 D
b1001110 B
b1 D
b1001111 B
b0 D
1)
1'
1&
0$
1#
0"
#2200
b110110100110010111100101 !
1A
1?
1;
1:
08
17
14
13
02
10
1.
1-
1+
1*
b11011010 C
b1100101 E
b11100101 D
b110110 C
b110110 B
b110 C
b111100 B
b11 C
b111111 B
b110010 E
b1110001 B
b110 E
b1110111 B
b1 E
b1111000 B
b0 E
b1110 D
b10000110 B
b111 D
b10001101 B
b11 D
b10010000 B
b0 D
0)
0(
0'
0&
1%
0#
1"
#2300
b111110100111011100000101 !
0<
0;
0:
18
15
1,
b11111010 C
b1110111 E
b101 D
b111110 C
b111110 B
b111 C
b1000101 B
b11 C
b1001000 B
b111011 E
b10000011 B
b111 E
b10001010 B
b1 E
b10001011 B
b0 E
b0 D
1)
1(
1&
0%
#2400
b1101111000110100100101 !
1<
08
16
05
04
03
12
11
1/
0.
0+
0*
b110111 C
b10001101 E
b100101 D
b1101 C
b1101 B
b1 C
b1110 B
b0 C
b1000110 E
b1010100 B
b1000 E
b1011100 B
b10 E
b1011110 B
b1 E
b1011111 B
b10 D
b1100001 B
b1 D
b1100010 B
b0 D
0)
0&
1$
1#
0"
#2500
b110001110001111011101001 !
0?
1>
1;
1:
09
18
15
02
0-
0,
1+
1*
b11000111 C
b11110 E
b11101001 D
b110001 C
b110001 B
b110 C
b110111 B
b11 C
b111010 B
b1111 E
b1001001 B
b1 E
b1001010 B
b0 E
b1110 D
b1011000 B
b111 D
b1011111 B
b11 D
b1100010 B
b0 D
#2600
b100000010010001011101 !
1?
1=
0<
0:
08
06
05
14
01
00
0/
1-
0+
0*
b10000 C
b100100 E
b1011101 D
b100 C
b100 B
b0 C
b10010 E
b10110 B
b10 E
b11000 B
b0 E
b101 D
b11101 B
b10 D
b11111 B
b1 D
b100000 B
b0 D
0(
0#
#2700
b1100101001110110001010 !
0A
1@
0?
0=
0;
1:
19
16
15
04
12
10
1,
b110010 C
b10011101 E
b10001010 D
b1100 C
b1100 B
b1 C
b1101 B
b0 C
b1001110 E
b1011011 B
b1001 E
b1100100 B
b10 E
b1100110 B
b1 E
b1100111 B
b1000 D
b1101111 B
b100 D
b1110011 B
b10 D
b1110101 B
b0 D
1)
1'
1%
1#
#2800
b11100010010000101011000 !
0@
1=
1;
0:
07
06
05
14
02
11
00
1+
b1110001 C
b100001 E
b1011000 D
b11100 C
b11100 B
b11 C
b11111 B
b1 C
b100000 B
b10000 E
b110000 B
b10 E
b110010 B
b0 E
b101 D
b110111 B
b10 D
b111001 B
b1 D
b111010 B
b0 D
0)
1(
0'
1&
0#
#2900
b100100100110001011 !
1A
1@
0=
0;
1:
16
04
13
01
10
0-
0,
0+
b10 C
b1001001 E
b10001011 D
b0 C
b0 B
b100100 E
b100100 B
b100 E
b101000 B
b1 E
b101001 B
b0 E
b1000 D
b110001 B
b100 D
b110101 B
b10 D
b110111 B
b0 D
1)
1'
0&
#3000
b1111111101000101010110 !
0A
1?
0>
1=
1;
0:
06
15
12
11
1/
1.
1-
1,
b111111 C
b11010001 E
b1010110 D
b1111 C
b1111 B
b1 C
b10000 B
b0 C
b1101000 E
b1111000 B
b1101 E
b10000101 B
b11 E
b10001000 B
b1 E
b10001001 B
b101 D
b10001110 B
b10 D
b10010000 B
b1 D
b10010001 B
b0 D
0(
0'
0$
1"
#3100
b111000111001001111001001 !
1A
0@
0?
1>
0=
1:
18
03
0/
0.
0-
1+
1*
b11100011 C
b10010011 E
b11001001 D
b111000 C
b111000 B
b111 C
b111111 B
b11 C
b1000010 B
b1001001 E
b10001011 B
b1001 E
b10010100 B
b10 E
b10010110 B
b1 E
b10010111 B
b1100 D
b10100011 B
b110 D
b10101001 B
b11 D
b10101100 B
b0 D
0)
1'
1&
0%
1$
#3200
b11011000111001010111001 !
1=
1<
0;
09
14
13
02
01
00
1/
1.
0*
b1101100 C
b1110010 E
b10111001 D
b11011 C
b11011 B
b11 C
b11110 B
b1 C
b11111 B
b111001 E
b1011000 B
b111 E
b1011111 B
b1 E
b1100000 B
b0 E
b1011 D
b1101011 B
b101 D
b1110000 B
b10 D
b1110010 B
b0 D
1(
0'
0&
1%
1#
0"
#3300
b101011011000101000000 !
0A
0>
0=
0<
1;
0:
19
08
03
12
11
0.
1-
0,
0+
b10101 C
b10110001 E
b1000000 D
b101 C
b101 B
b0 C
b1011000 E
b1011101 B
b1011 E
b1101000 B
b10 E
b1101010 B
b1 E
b1101011 B
b100 D
b1101111 B
b10 D
b1110001 B
b1 D
b1110010 B
b0 D
#3400
b100110111101011110000000 !
0;
1:
18
17
04
13
10
0/
1.
1*
b10011011 C
b11010111 E
b10000000 D
b100110 C
b100110 B
b100 C
b101010 B
b10 C
b101100 B
b1101011 E
b10010111 B
b1101 E
b10100100 B
b11 E
b10100111 B
b1 E
b10101000 B
b1000 D
b10110000 B
b100 D
b10110100 B
b10 D
b10110110 B
b0 D
1'
0#
1"
#3500
b111010001011111000001110 !
1@
1?
1>
0:
09
16
14
03
01
00
0-
1,
1+
b11101000 C
b10111110 E
b1110 D
b111010 C
b111010 B
b111 C
b1000001 B
b11 C
b1000100 B
b1011111 E
b10100011 B
b1011 E
b10101110 B
b10 E
b10110000 B
b1 E
b10110001 B
b0 D
1)
0(
0'
#3600
b1001111100100011010100 !
0@
0>
1=
1;
1:
08
07
05
04
13
11
10
1/
0.
0+
0*
b100111 C
b11001000 E
b11010100 D
b1001 C
b1001 B
b1 C
b1010 B
b0 C
b1100100 E
b1101110 B
b1100 E
b1111010 B
b11 E
b1111101 B
b1 E
b1111110 B
b1101 D
b10001011 B
b110 D
b10010001 B
b11 D
b10010100 B
b0 D
0)
1'
0$
#3700
b11111001110100110001110 !
1@
1>
0=
0;
19
14
01
00
1.
1-
1+
b1111100 C
b11101001 E
b10001110 D
b11111 C
b11111 B
b11 C
b100010 B
b1 C
b100011 B
b1110100 E
b10010111 B
b1110 E
b10100101 B
b11 E
b10101000 B
b1 E
b10101001 B
b1000 D
b10110001 B
b100 D
b10110101 B
b10 D
b10110111 B
b0 D
1)
1(
1$
#3800
b111101100110010011000000 !
0@
0?
0>
1;
09
17
06
02
10
0.
1*
b11110110 C
b1100100 E
b11000000 D
b111101 C
b111101 B
b111 C
b1000100 B
b11 C
b1000111 B
b110010 E
b1111001 B
b110 E
b1111111 B
b1 E
b10000000 B
b0 E
b1100 D
b10001100 B
b110 D
b10010010 B
b11 D
b10010101 B
b0 D
0(
0$
#3900
b110010110001100110010111 !
1A
1@
1?
1=
0;
19
07
16
15
04
03
11
0/
1.
0-
0,
b11001011 C
b11001 E
b10010111 D
b110010 C
b110010 B
b110 C
b111000 B
b11 C
b111011 B
b1100 E
b1000111 B
b1 E
b1001000 B
b0 E
b1001 D
b1010001 B
b100 D
b1010101 B
b10 D
b1010111 B
b0 D
1(
1#
0"
#4000
b110100011001000100100101 !
0@
0=
1<
0:
06
12
00
0.
1-
b11010001 C
b10010001 E
b100101 D
b110100 C
b110100 B
b110 C
b111010 B
b11 C
b111101 B
b1001000 E
b10000101 B
b1001 E
b10001110 B
b10 E
b10010000 B
b1 E
b10010001 B
b10 D
b10010011 B
b1 D
b10010100 B
b0 D
0)
0(
0#
1"
#4100
b11100111101101111000111 !
1@
0<
1;
1:
18
16
13
10
1,
0*
b1110011 C
b11011011 E
b11000111 D
b11100 C
b11100 B
b11 C
b11111 B
b1 C
b100000 B
b1101101 E
b10001101 B
b1101 E
b10011010 B
b11 E
b10011101 B
b1 E
b10011110 B
b1100 D
b10101010 B
b110 D
b10110000 B
b11 D
b10110011 B
b0 D
1)
1(
0'
1$
#4200
b110010110111001001011000 !
0A
0@
0?
1>
1=
0:
09
06
14
02
1.
0-
0,
1*
b11001011 C
b1110010 E
b1011000 D
b110010 C
b110010 B
b110 C
b111000 B
b11 C
b111011 B
b111001 E
b1110100 B
b111 E
b1111011 B
b1 E
b1111100 B
b0 E
b101 D
b10000001 B
b10 D
b10000011 B
b1 D
b10000100 B
b0 D
0)
0(
1'
0%
0$
#4300
b101111111111100101010001 !
1A
0>
19
08
16
12
1/
1-
1,
0+
b10111111 C
b11111001 E
b1010001 D
b101111 C
b101111 B
b101 C
b110100 B
b10 C
b110110 B
b1111100 E
b10110010 B
b1111 E
b11000001 B
b11 E
b11000100 B
b1 E
b11000101 B
b101 D
b11001010 B
b10 D
b11001100 B
b1 D
b11001101 B
b0 D
1)
1&
1#
#4400
b11100101100100100110010 !
0A
1@
1<
0;
05
04
01
0/
0.
1+
0*
b1110010 C
b11001001 E
b110010 D
b11100 C
b11100 B
b11 C
b11111 B
b1 C
b100000 B
b1100100 E
b10000100 B
b1100 E
b10010000 B
b11 E
b10010011 B
b1 E
b10010100 B
b11 D
b10010111 B
b1 D
b10011000 B
b0 D
0)
0'
1%
0#
#4500
b1000001101111000100011 !
1A
0=
09
18
17
15
00
0-
0+
b100000 C
b11011110 E
b100011 D
b1000 C
b1000 B
b1 C
b1001 B
b0 C
b1101111 E
b1111000 B
b1101 E
b10000101 B
b11 E
b10001000 B
b1 E
b10001001 B
b10 D
b10001011 B
b1 D
b10001100 B
b0 D
1'
0%
#4600
b101101001101010100 !
0A
0@
1?
1=
0<
1;
19
07
06
10
0,
b10 C
b11010011 E
b1010100 D
b0 C
b0 B
b1101001 E
b1101001 B
b1101 E
b1110110 B
b11 E
b1111001 B
b1 E
b1111010 B
b101 D
b1111111 B
b10 D
b10000001 B
b1 D
b10000010 B
b0 D
1(
0'
0&
#4700
b101000010000000110110011 !
1A
1@
0?
1<
0;
1:
08
05
03
02
11
00
1,
1*
b10100001 C
b10110011 D
b101000 C
b101000 B
b101 C
b101101 B
b10 C
b101111 B
b0 E
b1011 D
b111010 B
b101 D
b111111 B
b10 D
b1000001 B
b0 D
1)
0(
1#
0"
#4800
b111100101011001011010 !
0A
1>
0<
1;
0:
09
18
17
15
13
01
10
1/
1.
1-
0,
0*
b11110 C
b1010110 E
b1011010 D
b111 C
b111 B
b0 C
b101011 E
b110010 B
b101 E
b110111 B
b1 E
b111000 B
b0 E
b101 D
b111101 B
b10 D
b111111 B
b1 D
b1000000 B
b0 D
0)
#4900
b101011100001101011100110 !
1?
0>
0=
1<
1:
07
16
03
0-
1,
1*
b10101110 C
b11010 E
b11100110 D
b101011 C
b101011 B
b101 C
b110000 B
b10 C
b110010 B
b1101 E
b111111 B
b1 E
b1000000 B
b0 E
b1110 D
b1001110 B
b111 D
b1010101 B
b11 D
b1011000 B
b0 D
1&
1%
#5000
b110101101111010111110110 !
1=
19
08
17
06
14
13
12
0.
1-
0,
1+
b11010110 C
b11110101 E
b11110110 D
b110101 C
b110101 B
b110 C
b111011 B
b11 C
b111110 B
b1111010 E
b10111000 B
b1111 E
b11000111 B
b11 E
b11001010 B
b1 E
b11001011 B
b1111 D
b11011010 B
b111 D
b11100001 B
b11 D
b11100100 B
b0 D
1'
0&
0%
1$
1"
#5100
b110101100011001001100101 !
1A
0@
0=
0:
09
18
07
03
02
b11010110 C
b110010 E
b1100101 D
b110101 C
b110101 B
b110 C
b111011 B
b11 C
b111110 B
b11001 E
b1010111 B
b11 E
b1011010 B
b0 E
b110 D
b1100000 B
b11 D
b1100011 B
b1 D
b1100100 B
b0 D
0"
#5200
b111110100001010111101010 !
0A
1@
0?
1>
1:
19
08
17
04
0/
1.
1,
b11111010 C
b10101 E
b11101010 D
b111110 C
b111110 B
b111 C
b1000101 B
b11 C
b1001000 B
b1010 E
b1010010 B
b1 E
b1010011 B
b0 E
b1110 D
b1100001 B
b111 D
b1101000 B
b11 D
b1101011 B
b0 D
1)
1(
0'
1&
#5300
b10100110101101100001111 !
1A
1?
0<
0;
0:
18
07
16
13
11
0.
0,
0*
b1010011 C
b1011011 E
b1111 D
b10100 C
b10100 B
b10 C
b10110 B
b1 C
b10111 B
b101101 E
b1000100 B
b101 E
b1001001 B
b1 E
b1001010 B
b0 E
b0 D
0)
0$
#5400
b11000001000011101111 !
1<
1;
1:
09
08
06
03
01
00
1/
1.
0-
0+
b1100 C
b10000 E
b11101111 D
b11 C
b11 B
b0 C
b1000 E
b1011 B
b1 E
b1100 B
b0 E
b1110 D
b11010 B
b111 D
b100001 B
b11 D
b100100 B
b0 D
0(
1'
0&
1$
0#
#5500
b100111001010010001000100 !
0A
0@
0>
0<
0:
17
05
14
12
1-
1*
b10011100 C
b10100100 E
b1000100 D
b100111 C
b100111 B
b100 C
b101011 B
b10 C
b101101 B
b1010010 E
b1111111 B
b1010 E
b10001001 B
b10 E
b10001011 B
b1 E
b10001100 B
b100 D
b10010000 B
b10 D
b10010010 B
b1 D
b10010011 B
b0 D
1)
1(
0'
1%
0$
1"
#5600
b110100100101110111001001 !
1A
0?
1>
1:
19
16
15
04
13
02
10
0/
0.
1+
b11010010 C
b1011101 E
b11001001 D
b110100 C
b110100 B
b110 C
b111010 B
b11 C
b111101 B
b101110 E
b1101011 B
b101 E
b1110000 B
b1 E
b1110001 B
b0 E
b1100 D
b1111101 B
b110 D
b10000011 B
b11 D
b10000110 B
b0 D
0)
1'
0%
#5700
b111011110001000011001011 !
1@
09
07
06
03
11
1/
1.
0-
1,
b11101111 C
b10000 E
b11001011 D
b111011 C
b111011 B
b111 C
b1000010 B
b11 C
b1000101 B
b1000 E
b1001101 B
b1 E
b1001110 B
b0 E
b1100 D
b1011010 B
b110 D
b1100000 B
b11 D
b1100011 B
b0 D
1)
0'
1$
1#
0"
#5800
b100111101100001101000111 !
1?
0>
0:
19
18
05
13
12
01
1-
0,
0+
b10011110 C
b11000011 E
b1000111 D
b100111 C
b100111 B
b100 C
b101011 B
b10 C
b101101 B
b1100001 E
b10001110 B
b1100 E
b10011010 B
b11 E
b10011101 B
b1 E
b10011110 B
b100 D
b10100010 B
b10 D
b10100100 B
b1 D
b10100101 B
b0 D
0(
1'
0#
1"
#5900
b101000110111101011000111 !
1:
09
16
15
14
02
11
0/
0.
0-
1,
b10100011 C
b1111010 E
b11000111 D
b101000 C
b101000 B
b101 C
b101101 B
b10 C
b101111 B
b111101 E
b1101100 B
b111 E
b1110011 B
b1 E
b1110100 B
b0 E
b1100 D
b10000000 B
b110 D
b10000110 B
b11 D
b10001001 B
b0 D
0'
1&
0$
#6000
b101000001101010111110010 !
0A
0?
1=
1<
19
08
17
06
04
12
01
00
b10100000 C
b11010101 E
b11110010 D
b101000 C
b101000 B
b101 C
b101101 B
b10 C
b101111 B
b1101010 E
b10011001 B
b1101 E
b10100110 B
b11 E
b10101001 B
b1 E
b10101010 B
b1111 D
b10111001 B
b111 D
b11000000 B
b11 D
b11000011 B
b0 D
1(
0&
1#
#6100
b1110101001101111100001 !
1A
0@
0=
18
07
16
03
10
1.
1-
0*
b111010 C
b10011011 E
b11100001 D
b1110 C
b1110 B
b1 C
b1111 B
b0 C
b1001101 E
b1011100 B
b1001 E
b1100101 B
b10 E
b1100111 B
b1 E
b1101000 B
b1110 D
b1110110 B
b111 D
b1111101 B
b11 D
b10000000 B
b0 D
0)
0(
0#
#6200
b100110100101001110000101 !
1?
0<
0;
06
13
02
0,
1*
b10011010 C
b1010011 E
b10000101 D
b100110 C
b100110 B
b100 C
b101010 B
b10 C
b101100 B
b101001 E
b1010101 B
b101 E
b1011010 B
b1 E
b1011011 B
b0 E
b1000 D
b1100011 B
b100 D
b1100111 B
b10 D
b1101001 B
b0 D
1)
1&
1$
1#
0"
#6300
b1010011101001100110000 !
0A
0?
1=
1<
0:
12
11
00
0-
1,
0*
b101001 C
b11010011 E
b110000 D
b1010 C
b1010 B
b1 C
b1011 B
b0 C
b1101001 E
b1110100 B
b1101 E
b10000001 B
b11 E
b10000100 B
b1 E
b10000101 B
b11 D
b10001000 B
b1 D
b10001001 B
b0 D
0$
0#
1"
#6400
b111101000010001001110110 !
1@
1?
1;
09
05
14
03
02
01
1/
0.
1-
1+
1*
b11110100 C
b100010 E
b1110110 D
b111101 C
b111101 B
b111 C
b1000100 B
b11 C
b1000111 B
b10001 E
b1011000 B
b10 E
b1011010 B
b0 E
b111 D
b1100001 B
b11 D
b1100100 B
b1 D
b1100101 B
b0 D
1'
0&
1$
1#
0"
#6500
b10011010100100100011101 !
1A
0@
1>
0<
0;
19
08
16
04
13
11
1.
0-
0,
0*
b1001101 C
b1001001 E
b11101 D
b10011 C
b10011 B
b10 C
b10101 B
b1 C
b10110 B
b100100 E
b111010 B
b100 E
b111110 B
b1 E
b111111 B
b0 E
b1 D
b1000000 B
b0 D
0)
0'
0$
#6600
b100100000100010111010010 !
0A
1@
0?
0>
1;
1:
17
06
01
0/
0.
1-
0+
1*
b10010000 C
b1000101 E
b11010010 D
b100100 C
b100100 B
b100 C
b101000 B
b10 C
b101010 B
b100010 E
b1001100 B
b100 E
b1010000 B
b1 E
b1010001 B
b0 E
b1101 D
b1011110 B
b110 D
b1100100 B
b11 D
b1100111 B
b0 D
1)
1(
1'
1$
#6700
b101001110011100010110 !
1?
0;
0:
18
14
12
1/
0*
b10100 C
b11100111 E
b10110 D
b101 C
b101 B
b0 C
b1110011 E
b1111000 B
b1110 E
b10000110 B
b11 E
b10001001 B
b1 E
b10001010 B
b1 D
b10001011 B
b0 D
0'
1&
0$
0#
1"
#6800
b110000010000111011011011 !
1A
0?
1>
1;
1:
09
16
04
03
02
11
0/
0-
1+
1*
b11000001 C
b1110 E
b11011011 D
b110000 C
b110000 B
b110 C
b110110 B
b11 C
b111001 B
b111 E
b1000000 B
b0 E
b1101 D
b1001101 B
b110 D
b1010011 B
b11 D
b1010110 B
b0 D
0)
1'
0&
1%
1#
0"
#6900
b10000100001001101000000 !
0A
0@
0>
0=
0:
19
07
06
15
01
10
0*
b1000010 C
b10011 E
b1000000 D
b10000 C
b10000 B
b10 C
b10010 B
b1 C
b10011 B
b1001 E
b11100 B
b1 E
b11101 B
b0 E
b100 D
b100001 B
b10 D
b100011 B
b1 D
b100100 B
b0 D
0(
0%
1$
0#
#7000
b1001011100101010110101 !
1A
1?
1=
1<
0;
1:
09
16
05
13
12
11
00
1/
1,
0+
b100101 C
b11001010 E
b10110101 D
b1001 C
b1001 B
b1 C
b1010 B
b0 C
b1100101 E
b1101111 B
b1100 E
b1111011 B
b11 E
b1111110 B
b1 E
b1111111 B
b1011 D
b10001010 B
b101 D
b10001111 B
b10 D
b10010001 B
b0 D
1)
0'
1%
0$
1"
#7100
b110111100011001010010001 !
0?
0<
06
15
14
03
02
01
10
1.
1-
0,
1+
1*
b11011110 C
b110010 E
b10010001 D
b110111 C
b110111 B
b110 C
b111101 B
b11 C
b1000000 B
b11001 E
b1011001 B
b11 E
b1011100 B
b0 E
b1001 D
b1100101 B
b100 D
b1101001 B
b10 D
b1101011 B
b0 D
1(
1&
0%
1$
1#
0"
#7200
b10000111001111101110011 !
1@
1<
1;
0:
19
17
16
04
12
11
0/
0.
0-
0*
b1000011 C
b10011111 E
b1110011 D
b10000 C
b10000 B
b10 C
b10010 B
b1 C
b10011 B
b1001111 E
b1100010 B
b1001 E
b1101011 B
b10 E
b1101101 B
b1 E
b1101110 B
b111 D
b1110101 B
b11 D
b1111000 B
b1 D
b1111001 B
b0 D
0(
1%
#7300
b100100001000010100000 !
0A
0@
0=
0;
1:
09
08
07
06
02
01
1-
0+
b10010 C
b10000 E
b10100000 D
b100 C
b100 B
b0 C
b1000 E
b1100 B
b1 E
b1101 B
b0 E
b1010 D
b10111 B
b101 D
b11100 B
b10 D
b11110 B
b0 D
0)
1(
1'
0$
0#
#7400
b10100111110101010111 !
1A
1@
1?
1=
0<
1;
0:
19
17
16
14
13
1.
0-
b1010 C
b1111101 E
b1010111 D
b10 C
b10 B
b0 C
b111110 E
b1000000 B
b111 E
b1000111 B
b1 E
b1001000 B
b0 E
b101 D
b1001101 B
b10 D
b1001111 B
b1 D
b1010000 B
b0 D
0(
0'
0&
1#
#7500
b1000001110000011101 !
0@
1>
0;
09
04
03
00
1/
0.
b100 C
b11100 E
b11101 D
b1 C
b1 B
b0 C
b1110 E
b1111 B
b1 E
b10000 B
b0 E
b1 D
b10001 B
b0 D
1)
0#
