Fixed Point Modules/rgb2grey_dsp/rgb2grey_dsp.vcd
$date
	Thu Feb 22 16:24:13 2024
$end
$version
	ModelSim Version 10.5b
$end
$timescale
	1ps
$end

$scope module rgb2grey_tb $end
$var reg 24 ! rgb_pixel [23:0] $end
$var wire 1 " grey_pixel [7] $end
$var wire 1 # grey_pixel [6] $end
$var wire 1 $ grey_pixel [5] $end
$var wire 1 % grey_pixel [4] $end
$var wire 1 & grey_pixel [3] $end
$var wire 1 ' grey_pixel [2] $end
$var wire 1 ( grey_pixel [1] $end
$var wire 1 ) grey_pixel [0] $end

$scope module uut $end
$var wire 1 * rgb_pixel [23] $end
$var wire 1 + rgb_pixel [22] $end
$var wire 1 , rgb_pixel [21] $end
$var wire 1 - rgb_pixel [20] $end
$var wire 1 . rgb_pixel [19] $end
$var wire 1 / rgb_pixel [18] $end
$var wire 1 0 rgb_pixel [17] $end
$var wire 1 1 rgb_pixel [16] $end
$var wire 1 2 rgb_pixel [15] $end
$var wire 1 3 rgb_pixel [14] $end
$var wire 1 4 rgb_pixel [13] $end
$var wire 1 5 rgb_pixel [12] $end
$var wire 1 6 rgb_pixel [11] $end
$var wire 1 7 rgb_pixel [10] $end
$var wire 1 8 rgb_pixel [9] $end
$var wire 1 9 rgb_pixel [8] $end
$var wire 1 : rgb_pixel [7] $end
$var wire 1 ; rgb_pixel [6] $end
$var wire 1 < rgb_pixel [5] $end
$var wire 1 = rgb_pixel [4] $end
$var wire 1 > rgb_pixel [3] $end
$var wire 1 ? rgb_pixel [2] $end
$var wire 1 @ rgb_pixel [1] $end
$var wire 1 A rgb_pixel [0] $end
$var wire 1 " grey_pixel [7] $end
$var wire 1 # grey_pixel [6] $end
$var wire 1 $ grey_pixel [5] $end
$var wire 1 % grey_pixel [4] $end
$var wire 1 & grey_pixel [3] $end
$var wire 1 ' grey_pixel [2] $end
$var wire 1 ( grey_pixel [1] $end
$var wire 1 ) grey_pixel [0] $end
$var reg 8 B red_c [7:0] $end
$var reg 8 C green_c [7:0] $end
$var reg 8 D blue_c [7:0] $end
$var reg 16 E red_o [15:0] $end
$var reg 16 F green_o [15:0] $end
$var reg 16 G blue_o [15:0] $end
$var reg 24 H red_w [23:0] $end
$var reg 24 I green_w [23:0] $end
$var reg 24 J blue_w [23:0] $end
$var reg 24 K weighted [23:0] $end
$upscope $end
$upscope $end
$enddefinitions $end
#0
$dumpvars
b10110101010001110111000 !
b1001100 B
b10010110 C
b11101 D
b101101000000000 E
b1010001100000000 F
b1011100000000000 G
b110101011100000000000 H
b10111111000001000000000 I
b101001101100000000000 J
b100011110001001000000000 K
1)
1(
1'
1&
0%
0$
0#
1"
0A
0@
0?
1>
1=
1<
0;
1:
19
18
07
06
05
14
03
12
01
10
0/
1.
1-
0,
1+
0*
$end
#100
b11101010000110000100110 !
1@
1?
0>
0=
0:
09
08
17
16
04
02
11
00
1/
0.
1,
b111010100000000 E
b110000000000 F
b10011000000000 G
b1000101011110000000000 H
b1110000100000000000 I
b1000100111000000000 J
b1011100001001000000000 K
0)
1$
0"
#200
b11011011100101100110 !
1;
19
07
15
14
12
1.
0-
0,
0+
b110100000000 E
b1011100100000000 F
b110011000000000 G
b111101110000000000 H
b11011000110011000000000 I
b10111000111000000000 J
b11110111101000000000000 K
1)
0'
1%
1#
#300
b101110011110001110110110 !
1=
0;
1:
18
06
05
13
0/
1-
1,
1*
b1011100100000000 E
b1110001100000000 F
b1011011000000000 G
b1101101110110000000000 H
b100001010000001000000000 I
b101001001111000000000 J
b110100001000110000000000 K
0)
0(
0&
0$
1"
#400
b11100000100011000110 !
0=
0<
1;
09
08
16
04
03
02
01
10
1/
0-
0,
0*
b111000000000 E
b100000000000 F
b1100011000000000 G
b1000010100000000000 H
b1001011000000000000 I
b101100110111000000000 J
b111110100011000000000 K
1)
1(
1'
1&
0#
0"
#500
b100101010110111001000110 !
0:
18
17
14
13
11
00
0.
1-
1*
b1001010100000000 E
b110111000000000 F
b100011000000000 G
b1011000011110000000000 H
b10000000111010000000000 I
b1111110111000000000 J
b11101001001111000000000 K
0)
0(
0&
1$
1#
#600
b110100010000111101110010 !
0?
1=
1<
19
04
03
0/
1+
b1101000100000000 E
b111100000000 F
b111001000000000 G
b1111100000110000000000 H
b10001100101000000000 I
b11001110101000000000 J
b10100111100000000000000 K
1)
1(
0'
0$
#700
b100110111111001100101110 !
1?
1>
0=
0;
07
06
15
14
13
12
10
1.
0+
b1001101100000000 E
b1111001100000000 F
b10111000000000 G
b1011100000010000000000 H
b100011100110001000000000 I
b1010011011000000000 J
b110000011001110000000000 K
0(
0%
1"
#800
b1101110100010001100111 !
1A
0>
1;
09
08
17
05
04
02
1/
0.
1,
0*
b11011100000000 E
b100010000000000 F
b110011100000000 G
b100000101010000000000 H
b1001111101100000000000 I
b10111010101100000000 J
b10000111101011100000000 K
1(
0"
#900
b100001100101010100111010 !
0A
0?
1>
1=
0;
19
15
01
0-
0,
1*
b1000011000000000 E
b101010100000000 F
b11101000000000 G
b1001111100100000000000 H
b1100011100111000000000 I
b1101001001000000000 J
b11000000010100000000000 K
0)
0(
1$
#1000
b111110010001110001101010 !
0=
1;
09
16
03
11
00
0/
1.
1-
1,
1+
b1111100100000000 E
b1110000000000 F
b110101000000000 G
b10010011110110000000000 H
b100000110100000000000 I
b11000000001000000000 J
b11001100101011000000000 K
1(
1'
#1100
b1001011101000110110100 !
0@
1?
0>
1=
0;
1:
19
07
06
13
12
1/
0.
0-
0+
0*
b10010100000000 E
b1101000100000000 F
b1011010000000000 G
b10101111110000000000 H
b11110100111011000000000 I
b101000110010000000000 J
b100110011101011000000000 K
1)
0(
0'
1&
1%
0$
0#
1"
#1200
b101101111101001101111 !
1A
1@
1>
0=
1;
0:
09
18
16
14
01
10
1-
0,
b1011000000000 E
b1111101000000000 F
b110111100000000 G
b1101000100000000000 H
b100100100111110000000000 I
b11001001001100000000 J
b101001011001011100000000 K
1'
0&
0%
1$
#1300
b100110110001101001010110 !
0A
0>
1=
0<
04
03
02
11
0/
1.
1*
b1001101100000000 E
b1101000000000 F
b101011000000000 G
b1011100000010000000000 H
b11110011110000000000 I
b10011011111000000000 J
b10001101111111000000000 K
0)
1(
0$
1#
0"
#1400
b110010011011000110101 !
1A
0@
1<
0;
17
06
14
00
0*
b1100100000000 E
b11011000000000 F
b11010100000000 G
b1110110110000000000 H
b111111010010000000000 I
b1100000000100000000 J
b1011010001000100000000 K
1)
0(
1&
1$
0#
#1500
b111011010111011111010100 !
0A
0<
1;
1:
19
13
1/
0-
1,
1+
1*
b1110110100000000 E
b111011100000000 F
b1101010000000000 G
b10001100101110000000000 H
b10001011011101000000000 I
b110000000010000000000 J
b101001000001101000000000 K
0)
0&
1"
#1600
b100111110100000010101110 !
1@
1>
0=
1<
0;
09
08
07
05
04
10
1-
0,
0+
b1001111100000000 E
b100000000000000 F
b1010111000000000 G
b1011110011010000000000 H
b1001011000000000000000 I
b100111011011000000000 J
b11010000110101000000000 K
0'
1&
1#
0"
#1700
b111100011000000101111101 !
1A
0@
1=
1;
0:
19
03
12
00
0/
0.
1,
1+
b1111000100000000 E
b1000000100000000 F
b111110100000000 G
b10001111000110000000000 H
b10010111001011000000000 I
b11100010100100000000 J
b101000010100101100000000 K
1)
0&
0#
1"
#1800
b110011001011011111011011 !
1@
0?
0<
1:
18
17
15
14
01
1/
1.
0-
0,
b1100110000000000 E
b1011011100000000 F
b1101101100000000 G
b1111001001000000000000 H
b11010110011101000000000 I
b110001100111100000000 J
b110000001001100100000000 K
0)
0$
1#
#1900
b111011110000111000000101 !
0@
1?
0>
0=
0;
0:
09
16
05
04
02
11
10
1,
b1110111100000000 E
b111000000000 F
b10100000000 G
b10001101111010000000000 H
b10000011010000000000 I
b1001000100000000 J
b10011111011100100000000 K
1)
1(
1'
1&
0"
#2000
b110011011000011011100011 !
1@
0?
1<
1;
1:
06
12
00
0,
b1100110100000000 E
b1000011000000000 F
b1110001100000000 G
b1111001101110000000000 H
b10011101000010000000000 I
b110011011011100000000 J
b101001010001011100000000 K
0(
0&
1$
0#
1"
#2100
b1000001100100000 !
0A
0@
0;
0:
19
07
01
0/
0.
0+
0*
b0 E
b1000001100000000 F
b10000000000000 G
b0 H
b10011001100001000000000 I
b111010000000000000 J
b10100000110001000000000 K
0)
0'
1%
0$
1#
0"
#2200
b110110100110010111100101 !
1A
1?
1;
1:
08
17
14
13
02
10
1.
1-
1+
1*
b1101101000000000 E
b110010100000000 F
b1110010100000000 G
b10000001011100000000000 H
b1110110010111000000000 I
b110011111000100000000 J
b100101011101011100000000 K
1)
1'
0#
1"
#2300
b111110100111011100000101 !
0<
0;
0:
18
15
1,
b1111101000000000 E
b111011100000000 F
b10100000000 G
b10010100011100000000000 H
b10001011011101000000000 I
b1001000100000000 J
b100100001000001100000000 K
0)
0'
#2400
b1101111000110100100101 !
1<
08
16
05
04
03
12
11
1/
0.
0+
0*
b11011100000000 E
b1000110100000000 F
b10010100000000 G
b100000101010000000000 H
b10100101001111000000000 I
b1000011000100000000 J
b11001110010001100000000 K
1)
1(
1'
0%
1$
1#
0"
#2500
b110001110001111011101001 !
0?
1>
1;
1:
09
18
15
02
0-
0,
1+
1*
b1100011100000000 E
b1111000000000 F
b1110100100000000 G
b1110110001010000000000 H
b100011001010000000000 I
b110100110010100000000 J
b11001110000110100000000 K
#2600
b100000010010001011101 !
1?
1=
0<
0:
08
06
05
14
01
00
0/
1-
0+
0*
b1000000000000 E
b10010000000000 F
b101110100000000 G
b1001100000000000000 H
b101010001100000000000 I
b10101000100100000000 J
b1001000110000100000000 K
0)
0(
0#
#2700
b1100101001110110001010 !
0A
1@
0?
0=
0;
1:
19
16
15
04
12
10
1,
b11001000000000 E
b1001110100000000 F
b1000101000000000 G
b11101101100000000000 H
b10110111111111000000000 I
b11111010001000000000 J
b11110100111100000000000 K
1(
0'
1&
1%
1#
#2800
b11100010010000101011000 !
0@
1=
1;
0:
07
06
05
14
02
11
00
1+
b111000100000000 E
b10000100000000 F
b101100000000000 G
b1000011000110000000000 H
b100110101011000000000 I
b10011111100000000000 J
b1111101101101000000000 K
1'
0#
#2900
b100100100110001011 !
1A
1@
0=
0;
1:
16
04
13
01
10
0-
0,
0+
b1000000000 E
b100100100000000 F
b1000101100000000 G
b1001100000000000 H
b1010101100011000000000 I
b11111011111100000000 J
b1110110001110100000000 K
1)
0'
#3000
b1111111101000101010110 !
0A
1?
0>
1=
1;
0:
06
15
12
11
1/
1.
1-
1,
b11111100000000 E
b1101000100000000 F
b101011000000000 G
b100101011010000000000 H
b11110100111011000000000 I
b10011011111000000000 J
b100101101110100000000000 K
0)
1'
0&
0$
1"
#3100
b111000111001001111001001 !
1A
0@
0?
1>
0=
1:
18
03
0/
0.
0-
1+
1*
b1110001100000000 E
b1001001100000000 F
b1100100100000000 G
b10000110110010000000000 H
b10101100010001000000000 I
b101101100010100000000 J
b101100000100101100000000 K
0(
0'
1$
#3200
b11011000111001010111001 !
1=
1<
0;
09
14
13
02
01
00
1/
1.
0*
b110110000000000 E
b111001000000000 F
b1011100100000000 G
b1000000001000000000000 H
b10000101100110000000000 I
b101001111010100000000 J
b11101111101000100000000 K
1)
1(
1'
1#
0"
#3300
b101011011000101000000 !
0A
0>
0=
0<
1;
0:
19
08
03
12
11
0.
1-
0,
0+
b1010100000000 E
b1011000100000000 F
b100000000000000 G
b1100011110000000000 H
b11001111011011000000000 I
b1110100000000000000 J
b11101010011001000000000 K
0(
#3400
b100110111101011110000000 !
0;
1:
18
17
04
13
10
0/
1.
1*
b1001101100000000 E
b1101011100000000 F
b1000000000000000 G
b1011100000010000000000 H
b11111011111101000000000 I
b11101000000000000000 J
b101110100111111000000000 K
0)
1(
0'
1&
0#
1"
#3500
b111010001011111000001110 !
1@
1?
1>
0:
09
16
14
03
01
00
0-
1,
1+
b1110100000000000 E
b1011111000000000 F
b111000000000 G
b10001001110000000000000 H
b11011110101010000000000 I
b11001011000000000 J
b101101011100101000000000 K
1)
0(
1'
0&
#3600
b1001111100100011010100 !
0@
0>
1=
1;
1:
08
07
05
04
13
11
10
1/
0.
0+
0*
b10011100000000 E
b1100100000000000 F
b1101010000000000 G
b10111001010000000000 H
b11101010011000000000000 I
b110000000010000000000 J
b100110001100100000000000 K
0)
0'
1&
0$
#3700
b11111001110100110001110 !
1@
1>
0=
0;
19
14
01
00
1.
1-
1+
b111110000000000 E
b1110100100000000 F
b1000111000000000 G
b1001001101000000000000 H
b100010001000011000000000 I
b100000001011000000000 J
b101111010110110000000000 K
1)
1'
1$
#3800
b111101100110010011000000 !
0@
0?
0>
1;
09
17
06
02
10
0.
1*
b1111011000000000 E
b110010000000000 F
b1100000000000000 G
b10010010000100000000000 H
b1110101001100000000000 I
b101011100000000000000 J
b100110010110000000000000 K
0'
0$
#3900
b110010110001100110010111 !
1A
1@
1?
1=
0;
19
07
16
15
04
03
11
0/
1.
0-
0,
b1100101100000000 E
b1100100000000 F
b1001011100000000 G
b1111000100010000000000 H
b11101010011000000000 I
b100010001101100000000 J
b10111000000010100000000 K
0)
1'
1#
0"
#4000
b110100011001000100100101 !
0@
0=
1<
0:
06
12
00
0.
1-
b1101000100000000 E
b1001000100000000 F
b10010100000000 G
b1111100000110000000000 H
b10101001111011000000000 I
b1000011000100000000 J
b100101110011001100000000 K
1)
1(
0&
0#
1"
#4100
b11100111101101111000111 !
1@
0<
1;
1:
18
16
13
10
1,
0*
b111001100000000 E
b1101101100000000 F
b1100011100000000 G
b1000100010010000000000 H
b100000000101001000000000 I
b101101000101100000000 J
b101110010000000100000000 K
0(
0'
1&
1$
#4200
b110010110111001001011000 !
0A
0@
0?
1>
1=
0:
09
06
14
02
1.
0-
0,
1*
b1100101100000000 E
b111001000000000 F
b101100000000000 G
b1111000100010000000000 H
b10000101100110000000000 I
b10011111100000000000 J
b100010010000100000000000 K
0%
0$
#4300
b101111111111100101010001 !
1A
0>
19
08
16
12
1/
1-
1,
0+
b1011111100000000 E
b1111100100000000 F
b101000100000000 G
b1110001011010000000000 H
b100100011110011000000000 I
b10010010110100000000 J
b110100111100011100000000 K
1(
0&
1%
1#
#4400
b11100101100100100110010 !
0A
1@
1<
0;
05
04
01
0/
0.
1+
0*
b111001000000000 E
b1100100100000000 F
b11001000000000 G
b1000011101100000000000 H
b11101011100011000000000 I
b1011010101000000000 J
b100111010100100000000000 K
0(
1'
1&
0#
#4500
b1000001101111000100011 !
1A
0=
09
18
17
15
00
0-
0+
b10000000000000 E
b1101111000000000 F
b10001100000000 G
b10011000000000000000 H
b100000100001010000000000 I
b111111011100000000 J
b100011111000101100000000 K
1(
0%
#4600
b101101001101010100 !
0A
0@
1?
1=
0<
1;
19
07
06
10
0,
b1000000000 E
b1101001100000000 F
b101010000000000 G
b1001100000000000 H
b11110111010001000000000 I
b10011000010000000000 J
b100001011011111000000000 K
0(
0&
#4700
b101000010000000110110011 !
1A
1@
0?
1<
0;
1:
08
05
03
02
11
00
1,
1*
b1010000100000000 E
b100000000 F
b1011001100000000 G
b1011111100110000000000 H
b1001011000000000 I
b101000100011100000000 J
b10001001010100100000000 K
0)
1#
0"
#4800
b111100101011001011010 !
0A
1>
0<
1;
0:
09
18
17
15
13
01
10
1/
1.
1-
0,
0*
b1111000000000 E
b101011000000000 F
b101101000000000 G
b10001110100000000000 H
b1100100110010000000000 I
b10100011001000000000 J
b10001010111111000000000 K
1)
#4900
b101011100001101011100110 !
1?
0>
0=
1<
1:
07
16
03
0-
1,
1*
b1010111000000000 E
b1101000000000 F
b1110011000000000 G
b1100111010100000000000 H
b11110011110000000000 I
b110100000111000000000 J
b10111001111001000000000 K
0)
1&
1%
#5000
b110101101111010111110110 !
1=
19
08
17
06
14
13
12
0.
1-
0,
1+
b1101011000000000 E
b1111010100000000 F
b1111011000000000 G
b1111111000100000000000 H
b100011111000111000000000 I
b110111101111000000000 J
b111010101111010000000000 K
1(
0'
0%
1$
1"
#5100
b110101100011001001100101 !
1A
0@
0=
0:
09
18
07
03
02
b11001000000000 F
b110010100000000 G
b111010100110000000000 I
b10110111000100000000 J
b11010000100010100000000 K
0(
0"
#5200
b111110100001010111101010 !
0A
1@
0?
1>
1:
19
08
17
04
0/
1.
1,
b1111101000000000 E
b1010100000000 F
b1110101000000000 G
b10010100011100000000000 H
b11000100111000000000 I
b110101000001000000000 J
b11100010000100000000000 K
1)
0&
1%
#5300
b10100110101101100001111 !
1A
1?
0<
0;
0:
18
07
16
13
11
0.
0,
0*
b101001100000000 E
b101101100000000 F
b111100000000 G
b110001010010000000000 H
b1101010101001000000000 I
b11011001100000000 J
b10011111010100100000000 K
1(
1'
1&
0%
0$
#5400
b11000001000011101111 !
1<
1;
1:
09
08
06
03
01
00
1/
1.
0-
0+
b110000000000 E
b1000000000000 F
b1110111100000000 G
b111001000000000000 H
b10010110000000000000 I
b110110001001100000000 J
b1010000000001100000000 K
0)
0(
0'
1$
0#
#5500
b100111001010010001000100 !
0A
0@
0>
0<
0:
17
05
14
12
1-
1*
b1001110000000000 E
b1010010000000000 F
b100010000000000 G
b1011100101000000000000 H
b11000000001100000000000 I
b1111011010000000000 J
b100101100001110000000000 K
1(
1'
0&
1%
0$
1"
#5600
b110100100101110111001001 !
1A
0?
1>
1:
19
16
15
04
13
02
10
0/
0.
1+
b1101001000000000 E
b101110100000000 F
b1100100100000000 G
b1111100101100000000000 H
b1101100111111000000000 I
b101101100010100000000 J
b100010111001101100000000 K
1)
0'
1&
0%
#5700
b111011110001000011001011 !
1@
09
07
06
03
11
1/
1.
0-
1,
b1110111100000000 E
b1000000000000 F
b1100101100000000 G
b10001101111010000000000 H
b10010110000000000000 I
b101101111111100000000 J
b11001110101001100000000 K
1'
0&
1$
1#
0"
#5800
b100111101100001101000111 !
1?
0>
0:
19
18
05
13
12
01
1-
0,
0+
b1001111000000000 E
b1100001100000000 F
b100011100000000 G
b1011101110100000000000 H
b11100100100001000000000 I
b10000000101100000000 J
b101010010011010100000000 K
0(
0'
1&
0#
1"
#5900
b101000110111101011000111 !
1:
09
16
15
14
02
11
0/
0.
0-
1,
b1010001100000000 E
b111101000000000 F
b1100011100000000 G
b1100000110010000000000 H
b10001110111110000000000 I
b101101000101100000000 J
b100011100110101100000000 K
0)
1(
1'
0$
#6000
b101000001101010111110010 !
0A
0?
1=
1<
19
08
17
06
04
12
01
00
b1010000000000000 E
b1101010100000000 F
b1111001000000000 G
b1011111000000000000000 H
b11111001100111000000000 I
b110110110101000000000 J
b110001111011100000000000 K
1)
0&
1#
#6100
b1110101001101111100001 !
1A
0@
0=
18
07
16
03
10
1.
1-
0*
b11101000000000 E
b1001101100000000 F
b1110000100000000 G
b100010011100000000000 H
b10110101101001000000000 I
b110010111110100000000 J
b100001011000011100000000 K
0(
0#
#6200
b100110100101001110000101 !
1?
0<
0;
06
13
02
0,
1*
b1001101000000000 E
b101001100000000 F
b1000010100000000 G
b1011011011100000000000 H
b1100001010001000000000 I
b11110001000100000000 J
b11011010110101100000000 K
1&
1$
1#
0"
#6300
b1010011101001100110000 !
0A
0?
1=
1<
0:
12
11
00
0-
1,
0*
b10100100000000 E
b1101001100000000 F
b11000000000000 G
b11000010110000000000 H
b11110111010001000000000 I
b1010111000000000000 J
b100011010011111000000000 K
0$
0#
1"
#6400
b111101000010001001110110 !
1@
1?
1;
09
05
14
03
02
01
1/
0.
1-
1+
1*
b1111010000000000 E
b10001000000000 F
b111011000000000 G
b10010000111000000000000 H
b100111110110000000000 I
b11010101111000000000 J
b11010011011101000000000 K
0'
1$
1#
0"
#6500
b10011010100100100011101 !
1A
0@
1>
0<
0;
19
08
16
04
13
11
1.
0-
0,
0*
b100110100000000 E
b100100100000000 F
b1110100000000 G
b101101101110000000000 H
b1010101100011000000000 I
b110100100100000000 J
b10001001110101100000000 K
0)
1'
0&
0$
#6600
b100100000100010111010010 !
0A
1@
0?
0>
1;
1:
17
06
01
0/
0.
1-
0+
1*
b1001000000000000 E
b100010100000000 F
b1101001000000000 G
b1010101100000000000000 H
b1010000110111000000000 I
b101111100101000000000 J
b11010101111100000000000 K
1(
0'
1&
1$
#6700
b101001110011100010110 !
1?
0;
0:
18
14
12
1/
0*
b1010000000000 E
b1110011100000000 F
b1011000000000 G
b1011111000000000000 H
b100001110101101000000000 I
b100111111000000000 J
b100011111100100000000000 K
1)
1'
0$
0#
1"
#6800
b110000010000111011011011 !
1A
0?
1>
1;
1:
09
16
04
03
02
11
0/
0-
1+
1*
b1100000100000000 E
b111000000000 F
b1101101100000000 G
b1110010100110000000000 H
b10000011010000000000 I
b110001100111100000000 J
b10110100100111100000000 K
0)
0'
1%
1#
0"
#6900
b10000100001001101000000 !
0A
0@
0>
0=
0:
19
07
06
15
01
10
0*
b100001000000000 E
b1001100000000 F
b100000000000000 G
b100111001100000000000 H
b10110010001000000000 I
b1110100000000000000 J
b1001011111101000000000 K
1)
0(
1'
0&
0%
1$
0#
#7000
b1001011100101010110101 !
1A
1?
1=
1<
0;
1:
09
16
05
13
12
11
00
1/
1,
0+
b10010100000000 E
b1100101000000000 F
b1011010100000000 G
b10101111110000000000 H
b11101100101110000000000 I
b101001000000100000000 J
b100101011101100100000000 K
1%
0$
1"
#7100
b110111100011001010010001 !
0?
0<
06
15
14
03
02
01
10
1.
1-
0,
1+
1*
b1101111000000000 E
b11001000000000 F
b1001000100000000 G
b10000011110100000000000 H
b111010100110000000000 I
b100000110110100000000 J
b11011111010000100000000 K
1(
1&
0%
1$
1#
0"
#7200
b10000111001111101110011 !
1@
1<
1;
0:
19
17
16
04
12
11
0/
0.
0-
0*
b100001100000000 E
b1001111100000000 F
b111001100000000 G
b100111110010000000000 H
b10111010010101000000000 I
b11010000011100000000 J
b11111100001010100000000 K
0)
1%
#7300
b100100001000010100000 !
0A
0@
0=
0;
1:
09
08
07
06
02
01
1-
0+
b1001000000000 E
b1000000000000 F
b1010000000000000 G
b1010101100000000000 H
b10010110000000000000 I
b100100010000000000000 J
b1000001101100000000000 K
0(
0'
0&
0%
0#
#7400
b10100111110101010111 !
1A
1@
1?
1=
0<
1;
0:
19
17
16
14
13
1.
0-
b101000000000 E
b111110100000000 F
b101011100000000 G
b101111100000000000 H
b10010010011111000000000 I
b10011101101100000000 J
b10101100001000100000000 K
1(
1'
1%
0$
1#
#7500
b1000001110000011101 !
0@
1>
0;
09
04
03
00
1/
0.
b10000000000 E
b1110000000000 F
b1110100000000 G
b10011000000000000 H
b100000110100000000000 I
b110100100100000000 J
b101001110000100000000 K
0(
0#
#7600
b11110001010001111010100 !
0A
0>
1;
1:
19
18
07
06
05
14
12
0/
1.
1-
1,
1+
b111100000000000 E
b1010001100000000 F
b1101010000000000 G
b1000111010000000000000 H
b10111111000001000000000 I
b110000000010000000000 J
b100110110010011000000000 K
1)
1(
0'
1&
1"
#7700
b110001110001111111011101 !
1A
1>
17
16
15
04
02
11
10
1/
0.
0-
0,
1*
b1100011100000000 E
b1111100000000 F
b1101110100000000 G
b1110110001010000000000 H
b100100010101000000000 I
b110010000100100000000 J
b11001100100011100000000 K
0)
1'
0&
0%
1$
1#
0"
#7800
b111111010000110011010 !
0A
1@
0?
0;
08
07
06
05
14
12
1.
1-
0+
0*
b1111100000000 E
b1010000100000000 F
b1001101000000000 G
b10010011010000000000 H
b10111100101011000000000 I
b100010111001000000000 J
b11110001111110000000000 K
0(
0'
1&
1%
#7900
b10001101101000010000100 !
0@
1?
0>
0=
09
15
04
13
01
0.
0-
1+
b100011000000000 E
b1101000000000000 F
b1000010000000000 G
b101001100100000000000 H
b11110011110000000000000 I
b11101111010000000000 J
b100111011001110000000000 K
1)
1'
0$
0#
1"
#8000
b101000000100101110110111 !
1A
1@
1=
1<
19
18
16
05
02
00
0/
1,
0+
1*
b1010000000000000 E
b100101100000000 F
b1011011100000000 G
b1011111000000000000000 H
b1010111111001000000000 I
b101001011101100000000 J
b11100000010110100000000 K
0)
0'
0&
1$
1#
0"
#8100
b111101011110010001001 !
0@
0?
1>
0=
0<
09
08
17
15
14
03
12
10
1/
1.
1-
0,
0*
b1111000000000 E
b1011110000000000 F
b1000100100000000 G
b10001110100000000000 H
b11011100010100000000000 I
b11111000010100000000 J
b100001101001010100000000 K
1(
1'
0%
0$
0#
1"
#8200
b111010001001100100001010 !
0A
1@
0:
19
07
04
00
0/
0-
1,
1+
1*
b1110100000000000 E
b1001100100000000 F
b101000000000 G
b10001001110000000000000 H
b10110011010011000000000 I
b10010001000000000 J
b100111111010100000000000 K
1)
1&
1%
#8300
b110110010111101011010101 !
1A
0@
1?
0>
1=
1;
1:
09
18
14
13
02
11
1-
0,
b1101100100000000 E
b111101000000000 F
b1101010100000000 G
b10000000110110000000000 H
b10001110111110000000000 I
b110000010000100000000 J
b101000000000100100000000 K
0)
0(
0'
0&
0%
1$
#8400
b111001010000110011111110 !
0A
1@
1>
1<
08
17
05
04
03
1/
0.
0-
1,
b1110010100000000 E
b110000000000 F
b1111111000000000 G
b10000111111110000000000 H
b1110000100000000000 I
b111001100011000000000 J
b11001111100101000000000 K
1)
1(
1'
1#
0"
#8500
b101100011111001001100 !
0@
0=
0<
0:
18
15
14
01
10
1-
0,
0+
0*
b1011000000000 E
b11111000000000 F
b100110000000000 G
b1101000100000000000 H
b1001000101010000000000 I
b10001001110000000000 J
b1100110111100000000000 K
0'
1%
0#
#8600
b110010011000110111111110 !
1@
1=
1<
1:
19
08
05
04
12
11
00
0/
1.
0-
1+
1*
b1100100100000000 E
b1000110100000000 F
b1111111000000000 G
b1110111010110000000000 H
b10100101001111000000000 I
b111001100011000000000 J
b101010110001000000000000 K
1&
0%
1"
#8700
b11111000001101011000011 !
1A
0?
0>
0=
0<
09
18
07
15
02
01
1/
1-
1,
0*
b111110000000000 E
b1101000000000 F
b1100001100000000 G
b1001001101000000000000 H
b11110011110000000000 I
b101100001011100000000 J
b10010100010001100000000 K
0)
0$
1#
0"
#8800
b11100011110111110001000 !
0A
0@
1>
0;
19
17
05
14
13
12
11
0/
0.
b111000100000000 E
b1110111100000000 F
b1000100000000000 G
b1000011000110000000000 H
b100011000000101000000000 I
b11110110100000000000 J
b101111001111111000000000 K
0(
1'
1%
1$
0#
1"
#8900
b11000100001110110111100 !
1?
1=
1<
08
15
04
03
02
01
10
0-
b110001000000000 E
b1110100000000 F
b1011110000000000 G
b111010001100000000000 H
b100001111111000000000 I
b101010100110000000000 J
b10000110110001000000000 K
1)
1(
0'
0&
0%
0$
1#
0"
#9000
b110110100010110011011 !
1A
1@
0?
0<
06
05
13
11
1.
1-
0,
0+
b1101100000000 E
b100010100000000 F
b1001101100000000 G
b10000000010000000000 H
b1010000110111000000000 I
b100011000111100000000 J
b10000100000000100000000 K
0)
#9100
b11101011101011110011 !
0>
1<
1;
09
18
07
16
15
14
03
12
01
1/
0-
b111000000000 E
b1011101000000000 F
b1111001100000000 G
b1000010100000000000 H
b11011001111110000000000 I
b110111000011100000000 J
b100011001010101100000000 K
0(
1'
1&
0#
1"
#9200
b100000001110111000101111 !
1?
1>
0=
0;
0:
17
05
13
00
0/
0.
1*
b1000000000000000 E
b1110111000000000 F
b10111100000000 G
b1001100000000000000000 H
b100010110111010000000000 I
b1010101001100000000 J
b101101101100011100000000 K
1(
0&
1%
1$
#9300
b11110100100010110110111 !
0>
1=
1:
19
08
06
04
02
10
1.
1-
1,
1+
0*
b111101000000000 E
b100010100000000 F
b1011011100000000 G
b1001000011100000000000 H
b1010000110111000000000 I
b101001011101100000000 J
b11000010110000100000000 K
1)
0(
0'
0%
1#
0"
#9400
b101100111101000100001011 !
0?
1>
0=
0<
0:
07
15
12
11
0.
0+
1*
b1011001100000000 E
b1101000100000000 F
b101100000000 G
b1101010010010000000000 H
b11110100111011000000000 I
b10011111100000000 J
b101100001101100100000000 K
0)
1%
0#
1"
#9500
b11010011101011100111 !
1?
0>
1<
1;
1:
09
18
16
14
03
02
00
1/
1.
0-
0,
0*
b110100000000 E
b11101000000000 F
b1110011100000000 G
b111101110000000000 H
b1000011111110000000000 I
b110100010101100000000 J
b10000000000001100000000 K
0%
0$
1#
0"
#9600
b11011111010110100000000 !
0A
0@
0?
0<
0;
0:
19
08
17
05
12
10
1,
1+
b110111100000000 E
b1010110100000000 F
b0 G
b1000001111010000000000 H
b11001010101111000000000 I
b0 J
b100001100101001000000000 K
1(
1'
0#
1"
#9700
b10111010100100100001001 !
1A
1>
07
04
13
02
00
1-
0,
b101110100000000 E
b100100100000000 F
b100100000000 G
b110111001110000000000 H
b1010101100011000000000 I
b10000010100000000 J
b10001110110011100000000 K
1)
1#
0"
#9800
b101000011010001001101010 !
0A
1@
1<
1;
09
18
06
14
03
12
0/
0.
0-
1,
0+
1*
b1010000100000000 E
b1010001000000000 F
b110101000000000 G
b1011111100110000000000 H
b10111101110110000000000 I
b11000000001000000000 J
b100110101011101000000000 K
0)
0'
1&
1%
0#
1"
#9900
b1001110011101011000001 !
1A
0@
0>
0<
1:
16
15
02
10
1/
0*
b10011100000000 E
b11101000000000 F
b1100000100000000 G
b10111001010000000000 H
b1000011111110000000000 I
b101011101110100000000 J
b10000110110110100000000 K
1)
0&
0%
1#
0"
#10000
b100011000001111000000100 !
0A
1?
0;
0:
17
04
01
00
1.
0,
1*
b1000110000000000 E
b1111000000000 F
b10000000000 G
b1010011001000000000000 H
b100011001010000000000 I
b111010000000000 J
b1110111001100000000000 K
1&
1%
1$
0#
#10100
b111011001010111101100000 !
0?
1<
1;
19
05
14
12
1,
1+
b1110110000000000 E
b1010111100000000 F
b110000000000000 G
b10001100001000000000000 H
b11001101000101000000000 I
b10101110000000000000 J
b101101110111101000000000 K
1'
0&
1"
